Endpoint Body is :https://reqres.in/api/users/2

Request Body is :{
    "name": "Meeneru",
    "job": "Sr.QA"
}

Response Body is :{"name":"Meeneru","job":"Sr.QA","id":"721","createdAt":"2023-12-30T06:52:15.181Z"}