Endpoint Body is :https://reqres.in/api/users/2

Request Body is :{
    "name": "sujata",
    "job": "QA"
}

Response Body is :{"name":"sujata","job":"QA","id":"729","createdAt":"2024-01-05T13:56:11.858Z"}